{
    "data": [
        {
            "data": {
                "item": "101.01",
                "descripcion": "OPERARIO",
                "unidad": "JORNAL",
                "cantidad": "21.00",
                "precioUnitario": "90.00",
                "importe": "1890.00",
                "razonSocial": "JULIO JUAN PINEDA",
                "formaPago": "CHEQUE",
                "sustento": "XXXXXXXXXXXXXXXXX",
                "observacion": "PERIÓDO 09-10-2019 AL 29-10-2019"  
            },
            "leaf": true
        },
        {
            "data": {
                "item": "101.02",
                "descripcion": "OFICIAL",
                "unidad": "JORNAL",
                "cantidad": "20.00",
                "precioUnitario": "80.00",
                "importe": "1600.00",
                "razonSocial": "GUILLERMO GARCIA ESCALANTE",
                "formaPago": "EFECTIVO",
                "sustento": "ZZZZZZZZZZZZZZZZZ",
                "observacion": ""  
            },
            "leaf": true
        }
        
        
    ]
}