{
	"codResultado": 1,
	"msgResultado": "OK",
	"total": null,
	"response": [
        {
            "idCodigo": 1,
            "cidCodigo": "001",
            "cidNombre": "Desempeño"
        }, 
        {
            "idCodigo": 2,
            "cidCodigo": "002",
            "cidNombre": "Desempeño"
        }
        
    ],
	"idPerfil": null
}